{
  "packageRules": [
    {
      "matchPaths": ["containers/alpine3.14"],
      "packageRules": [
        {
          "matchPackagePatterns": ["^alpine$"],
          "allowedVersions": "=3.14"
        }
      ]
    }
  ]
}
